Taiwan all securities list. — tw_getAllSec • tw
…
    Taiwan all securities list.

tw_getAllSec()

    Value

    a tibble contains following variables: no, title, dated,
  sec_type, sec_symbol, sec_name, isin_code, start_date, end_date,
  intr_rate, market, sector, cfi_code, remark.

    Examples

tw_getAllSec()
#> # A tibble: 35,746 x 14
#>       no title dated      sec_type sec_symbol sec_name isin_code start_date
#>    <int> <chr> <date>     <chr>    <chr>      <chr>    <chr>     <date>    
#>  1     1 本國未上~ 2019-09-01 NA       1111       欣欣水泥 TW000111~ 1982-11-24
#>  2     1 本國未上~ 2019-09-01 NA       1115       和桐水泥 TW000111~ 2014-01-27
#>  3     1 本國未上~ 2019-09-01 NA       1237       台糖公司 TW000123~ 1950-09-01
#>  4     1 本國未上~ 2019-09-01 NA       1242       新東陽   TW000124~ 1991-10-28
#>  5     1 本國未上~ 2019-09-01 NA       1246       中聯油脂 TW000124~ 1997-05-31
#>  6     1 本國未上~ 2019-09-01 NA       1267       京華堂   TW000126~ 2015-01-19
#>  7     1 本國未上~ 2019-09-01 NA       1271       晨暉生技 TW000127~ 2017-01-16
#>  8     1 本國未上~ 2019-09-01 NA       1293       利統     TW000129~ 2019-08-22
#>  9     1 本國未上~ 2019-09-01 NA       1328       中油     TW000132~ 1997-12-24
#> 10     1 本國未上~ 2019-09-01 NA       1342       八貫     TW000134~ 2019-07-29
#> # ... with 35,736 more rows, and 6 more variables: end_date <date>,
#> #   intr_rate <chr>, market <chr>, sector <chr>, cfi_code <chr>, remark <chr>
…
